<?xml version="1.0" encoding="UTF-8" standalone="no" ?>
<!DOCTYPE svg PUBLIC "-//W3C//DTD SVG 1.1//EN" "http://www.w3.org/Graphics/SVG/1.1/DTD/svg11.dtd">
<svg xmlns="http://www.w3.org/2000/svg" xmlns:xlink="http://www.w3.org/1999/xlink" version="1.1" width="1024" height="1024" viewBox="0 0 1024 1024" xml:space="preserve">
<desc>Created with Fabric.js 3.1.0</desc>
<defs>
</defs>
<g transform="matrix(1 0 0 1 512 512)" id="background-logo"  >
<rect style="stroke: none; stroke-width: 1; stroke-dasharray: none; stroke-linecap: butt; stroke-dashoffset: 0; stroke-linejoin: miter; stroke-miterlimit: 10; fill: rgb(255,255,255); fill-rule: nonzero; opacity: 1;"  paint-order="stroke"  x="-512" y="-512" rx="0" ry="0" width="1024" height="1024" />
</g>
<g transform="matrix(1.5745007680491556 0 0 1.5745007680491552 533.3341707648301 512)"  >
<path style="stroke: none; stroke-width: 1; stroke-dasharray: none; stroke-linecap: butt; stroke-dashoffset: 0; stroke-linejoin: miter; stroke-miterlimit: 10; fill: rgb(0,106,176); fill-rule: nonzero; opacity: 1;"  paint-order="stroke"  transform=" translate(-113.44999999999999, 13.885)" d="M 8.81 -16.3 L 8.81 -16.3 Q 6.24 -16.3 6.24 -14.78 L 6.24 -14.78 Q 6.24 -13.34 8.93 -12.64 L 8.93 -12.64 L 12.01 -11.82 Q 16.77 -10.57 16.77 -6.32 L 16.77 -6.32 Q 16.77 -3.39 14.72 -1.54 Q 12.68 0.31 8.21 0.31 Q 3.74 0.31 1.25 -0.94 L 1.25 -0.94 Q 1.21 -1.36 1.21 -1.79 L 1.21 -1.79 Q 1.21 -3.94 2.07 -5.66 L 2.07 -5.66 L 5.3 -5.66 Q 5.81 -4.72 5.97 -3.71 L 5.97 -3.71 Q 6.75 -3.47 8.19 -3.47 L 8.19 -3.47 Q 11.62 -3.47 11.62 -5.42 L 11.62 -5.42 Q 11.62 -6.04 11.15 -6.45 Q 10.69 -6.86 9.32 -7.25 L 9.32 -7.25 L 6.24 -8.15 Q 3.86 -8.81 2.54 -10.12 Q 1.21 -11.43 1.21 -13.98 Q 1.21 -16.54 3.28 -18.17 Q 5.34 -19.81 9.18 -19.81 Q 13.03 -19.81 15.68 -18.68 L 15.68 -18.68 Q 15.72 -18.29 15.72 -17.9 L 15.72 -17.9 Q 15.72 -15.87 14.86 -14.16 L 14.86 -14.16 L 11.66 -14.16 Q 11.15 -15.05 11 -16.03 L 11 -16.03 Q 9.91 -16.3 8.81 -16.3 Z M 22.85 -24.41 L 25.7 -24.41 L 25.7 -19.5 L 31.28 -19.5 L 31.28 -16.22 L 25.7 -16.22 L 25.7 -6.36 Q 25.7 -5.11 26.05 -4.54 Q 26.4 -3.98 27.73 -3.98 Q 29.05 -3.98 30.58 -4.56 L 30.58 -4.56 L 31.75 -1.52 Q 28.74 0 25.6 0 Q 22.46 0 21.35 -1.35 Q 20.24 -2.69 20.24 -5.26 L 20.24 -5.26 L 20.24 -16.22 L 18.49 -16.22 L 18.06 -18.6 Q 18.68 -19.34 20.63 -20.09 L 20.63 -20.09 Q 21.1 -23.28 22.85 -24.41 L 22.85 -24.41 Z M 42.47 0.31 L 42.47 0.31 Q 37.79 0.31 35.43 -2.18 Q 33.07 -4.68 33.07 -9.44 L 33.07 -9.44 Q 33.07 -12.32 33.89 -14.41 Q 34.71 -16.5 36.11 -17.63 L 36.11 -17.63 Q 38.84 -19.81 42.47 -19.81 Q 46.1 -19.81 48.03 -17.96 Q 49.96 -16.11 49.96 -11.31 L 49.96 -11.31 Q 49.96 -8.5 47.19 -8.5 L 47.19 -8.5 L 38.73 -8.5 Q 38.88 -6.04 39.99 -5.03 Q 41.11 -4.02 43.52 -4.02 L 43.52 -4.02 Q 44.85 -4.02 46.06 -4.33 Q 47.27 -4.64 47.81 -4.95 L 47.81 -4.95 L 48.36 -5.26 L 49.53 -2.15 Q 49.3 -1.87 48.85 -1.46 Q 48.4 -1.05 46.59 -0.37 Q 44.77 0.31 42.47 0.31 Z M 38.77 -11.74 L 44.93 -11.97 Q 45.01 -12.52 45.01 -13.3 Q 45.01 -14.08 44.38 -14.96 Q 43.76 -15.83 42.22 -15.83 Q 40.68 -15.83 39.86 -14.9 Q 39.04 -13.96 38.77 -11.74 L 38.77 -11.74 Z M 51.95 -16.5 L 52.34 -19.5 Q 54.48 -19.97 56.2 -19.97 Q 57.91 -19.97 59.05 -19.89 L 59.05 -19.89 L 59.05 -17.94 Q 59.98 -18.72 61.39 -19.27 Q 62.79 -19.81 63.92 -19.81 L 63.92 -19.81 Q 68.37 -19.81 69.85 -17.59 L 69.85 -17.59 Q 70.82 -18.52 72.42 -19.17 Q 74.02 -19.81 75.39 -19.81 L 75.39 -19.81 Q 79.68 -19.81 81.16 -17.88 Q 82.64 -15.95 82.64 -10.65 L 82.64 -10.65 L 82.64 -4.33 Q 84.16 -3.74 84.79 -3 L 84.79 -3 L 84.4 0 L 75.43 0 L 75.04 -3 Q 75.58 -3.74 77.18 -4.33 L 77.18 -4.33 L 77.18 -12.05 Q 77.18 -14.2 76.6 -14.9 Q 76.01 -15.6 74.28 -15.6 Q 72.54 -15.6 70.98 -14.31 L 70.98 -14.31 Q 71.17 -12.99 71.17 -10.65 L 71.17 -10.65 L 71.17 -4.33 Q 72.7 -3.74 73.32 -3 L 73.32 -3 L 72.93 0 L 63.96 0 L 63.57 -3 Q 64.12 -3.74 65.72 -4.33 L 65.72 -4.33 L 65.72 -12.05 Q 65.72 -14.2 65.13 -14.9 Q 64.55 -15.6 62.83 -15.6 Q 61.11 -15.6 59.55 -14.35 L 59.55 -14.35 L 59.55 -4.33 Q 61.07 -3.74 61.7 -3 L 61.7 -3 L 61.31 0 L 52.34 0 L 51.95 -3 Q 52.49 -3.74 54.09 -4.33 L 54.09 -4.33 L 54.09 -15.17 Q 52.73 -15.64 51.95 -16.5 L 51.95 -16.5 Z M 93.91 -16.3 L 93.91 -16.3 Q 91.34 -16.3 91.34 -14.78 L 91.34 -14.78 Q 91.34 -13.34 94.03 -12.64 L 94.03 -12.64 L 97.11 -11.82 Q 101.87 -10.57 101.87 -6.32 L 101.87 -6.32 Q 101.87 -3.39 99.82 -1.54 Q 97.77 0.31 93.31 0.31 Q 88.84 0.31 86.35 -0.94 L 86.35 -0.94 Q 86.31 -1.36 86.31 -1.79 L 86.31 -1.79 Q 86.31 -3.94 87.16 -5.66 L 87.16 -5.66 L 90.4 -5.66 Q 90.91 -4.72 91.06 -3.71 L 91.06 -3.71 Q 91.84 -3.47 93.29 -3.47 L 93.29 -3.47 Q 96.72 -3.47 96.72 -5.42 L 96.72 -5.42 Q 96.72 -6.04 96.25 -6.45 Q 95.78 -6.86 94.42 -7.25 L 94.42 -7.25 L 91.34 -8.15 Q 88.96 -8.81 87.63 -10.12 Q 86.31 -11.43 86.31 -13.98 Q 86.31 -16.54 88.37 -18.17 Q 90.44 -19.81 94.28 -19.81 Q 98.12 -19.81 100.78 -18.68 L 100.78 -18.68 Q 100.81 -18.29 100.81 -17.9 L 100.81 -17.9 Q 100.81 -15.87 99.96 -14.16 L 99.96 -14.16 L 96.76 -14.16 Q 96.25 -15.05 96.1 -16.03 L 96.1 -16.03 Q 95 -16.3 93.91 -16.3 Z M 104.48 -16.61 L 104.48 -16.61 Q 104.48 -17.2 104.52 -17.86 L 104.52 -17.86 Q 108.15 -19.81 112.32 -19.81 Q 116.49 -19.81 118.31 -18.23 Q 120.12 -16.65 120.12 -12.99 L 120.12 -12.99 L 120.12 -4.68 Q 121.48 -4.41 122.27 -4.02 L 122.27 -4.02 L 122.27 -0.62 Q 120.28 0.31 116.57 0.31 L 116.57 0.31 Q 116.18 -0.7 115.91 -2.15 L 115.91 -2.15 Q 114.23 0.31 109.82 0.31 L 109.82 0.31 Q 107.21 0.31 105.36 -1.21 Q 103.51 -2.73 103.51 -5.34 Q 103.51 -7.96 105.24 -9.46 Q 106.98 -10.96 110.41 -10.96 L 110.41 -10.96 L 114.66 -10.96 L 114.66 -12.83 Q 114.66 -15.87 111.42 -15.87 L 111.42 -15.87 Q 110.21 -15.87 109.43 -15.64 L 109.43 -15.64 Q 109.36 -14 108.97 -13.1 L 108.97 -13.1 L 105.14 -13.1 Q 104.48 -14.47 104.48 -16.61 Z M 111.5 -3.67 L 111.5 -3.67 Q 113.49 -3.67 114.66 -4.84 L 114.66 -4.84 L 114.66 -8.03 L 111.93 -8.03 Q 109.12 -8.03 109.12 -5.89 L 109.12 -5.89 Q 109.12 -4.91 109.73 -4.29 Q 110.33 -3.67 111.5 -3.67 Z M 123.67 -16.5 L 124.06 -19.5 Q 126.2 -19.97 127.92 -19.97 Q 129.64 -19.97 130.77 -19.89 L 130.77 -19.89 L 130.77 -17.94 Q 131.7 -18.72 133.11 -19.27 Q 134.51 -19.81 135.64 -19.81 L 135.64 -19.81 Q 140.09 -19.81 141.57 -17.59 L 141.57 -17.59 Q 142.55 -18.52 144.14 -19.17 Q 145.74 -19.81 147.11 -19.81 L 147.11 -19.81 Q 151.4 -19.81 152.88 -17.88 Q 154.36 -15.95 154.36 -10.65 L 154.36 -10.65 L 154.36 -4.33 Q 155.88 -3.74 156.51 -3 L 156.51 -3 L 156.12 0 L 147.15 0 L 146.76 -3 Q 147.3 -3.74 148.9 -4.33 L 148.9 -4.33 L 148.9 -12.05 Q 148.9 -14.2 148.32 -14.9 Q 147.73 -15.6 146 -15.6 Q 144.26 -15.6 142.7 -14.31 L 142.7 -14.31 Q 142.9 -12.99 142.9 -10.65 L 142.9 -10.65 L 142.9 -4.33 Q 144.42 -3.74 145.04 -3 L 145.04 -3 L 144.65 0 L 135.68 0 L 135.29 -3 Q 135.84 -3.74 137.44 -4.33 L 137.44 -4.33 L 137.44 -12.05 Q 137.44 -14.2 136.85 -14.9 Q 136.27 -15.6 134.55 -15.6 Q 132.83 -15.6 131.27 -14.35 L 131.27 -14.35 L 131.27 -4.33 Q 132.8 -3.74 133.42 -3 L 133.42 -3 L 133.03 0 L 124.06 0 L 123.67 -3 Q 124.22 -3.74 125.81 -4.33 L 125.81 -4.33 L 125.81 -15.17 Q 124.45 -15.64 123.67 -16.5 L 123.67 -16.5 Z M 172.22 -1.64 L 172.22 -1.64 Q 169.53 0.31 165.89 0.31 Q 162.24 0.31 160.8 -1.21 Q 159.35 -2.73 159.35 -6.16 L 159.35 -6.16 L 159.35 -15.17 Q 157.99 -15.64 157.21 -16.5 L 157.21 -16.5 L 157.6 -19.5 Q 159.78 -20.01 161.66 -20.01 Q 163.53 -20.01 164.81 -19.89 L 164.81 -19.89 L 164.81 -7.45 Q 164.81 -5.34 165.46 -4.66 Q 166.1 -3.98 168.01 -3.98 Q 169.92 -3.98 171.56 -5.23 L 171.56 -5.23 L 171.56 -15.17 Q 170.2 -15.64 169.42 -16.5 L 169.42 -16.5 L 169.81 -19.5 Q 171.99 -20.01 173.86 -20.01 Q 175.73 -20.01 177.02 -19.89 L 177.02 -19.89 L 177.02 -4.68 Q 178.39 -4.41 179.17 -4.02 L 179.17 -4.02 L 179.17 -0.94 Q 176.83 0.31 173.28 0.31 L 173.28 0.31 Q 172.3 -0.39 172.22 -1.64 Z M 192.47 -14.7 L 192.47 -14.7 Q 189.5 -14.7 188.37 -13.57 L 188.37 -13.57 L 188.37 -4.64 Q 191.53 -4.06 192.7 -3 L 192.7 -3 L 192.31 0 L 181.16 0 L 180.77 -3 Q 181.31 -3.74 182.91 -4.33 L 182.91 -4.33 L 182.91 -15.17 Q 181.55 -15.64 180.77 -16.5 L 180.77 -16.5 L 181.16 -19.5 Q 183.3 -19.97 185.02 -19.97 Q 186.73 -19.97 187.86 -19.89 L 187.86 -19.89 L 187.86 -17.43 Q 188.76 -18.49 190.16 -19.17 Q 191.57 -19.85 192.72 -19.85 Q 193.87 -19.85 194.3 -19.66 L 194.3 -19.66 L 194.18 -14.59 Q 193.4 -14.7 192.47 -14.7 Z M 196.68 -16.61 L 196.68 -16.61 Q 196.68 -17.2 196.72 -17.86 L 196.72 -17.86 Q 200.34 -19.81 204.52 -19.81 Q 208.69 -19.81 210.5 -18.23 Q 212.32 -16.65 212.32 -12.99 L 212.32 -12.99 L 212.32 -4.68 Q 213.68 -4.41 214.46 -4.02 L 214.46 -4.02 L 214.46 -0.62 Q 212.47 0.31 208.77 0.31 L 208.77 0.31 Q 208.38 -0.7 208.1 -2.15 L 208.1 -2.15 Q 206.43 0.31 202.02 0.31 L 202.02 0.31 Q 199.41 0.31 197.55 -1.21 Q 195.7 -2.73 195.7 -5.34 Q 195.7 -7.96 197.44 -9.46 Q 199.17 -10.96 202.61 -10.96 L 202.61 -10.96 L 206.86 -10.96 L 206.86 -12.83 Q 206.86 -15.87 203.62 -15.87 L 203.62 -15.87 Q 202.41 -15.87 201.63 -15.64 L 201.63 -15.64 Q 201.55 -14 201.16 -13.1 L 201.16 -13.1 L 197.34 -13.1 Q 196.68 -14.47 196.68 -16.61 Z M 203.7 -3.67 L 203.7 -3.67 Q 205.69 -3.67 206.86 -4.84 L 206.86 -4.84 L 206.86 -8.03 L 204.13 -8.03 Q 201.32 -8.03 201.32 -5.89 L 201.32 -5.89 Q 201.32 -4.91 201.92 -4.29 Q 202.53 -3.67 203.7 -3.67 Z M 215.94 -16.5 L 216.33 -19.5 Q 218.52 -20.01 220.39 -20.01 Q 222.26 -20.01 223.55 -19.89 L 223.55 -19.89 L 223.55 -4.33 Q 225.07 -3.74 225.69 -3 L 225.69 -3 L 225.3 0 L 216.33 0 L 215.94 -3 Q 216.49 -3.74 218.09 -4.33 L 218.09 -4.33 L 218.09 -15.17 Q 216.72 -15.64 215.94 -16.5 L 215.94 -16.5 Z M 220.76 -22.19 Q 217.5 -22.19 217.5 -25.14 Q 217.5 -28.08 220.76 -28.08 Q 224.02 -28.08 224.02 -25.14 Q 224.02 -22.19 220.76 -22.19 Z" stroke-linecap="round" />
</g>
<g transform="matrix(0.9509809861343301 0 0 0.9509809861343301 217.3838602970385 512)" style="" id="logo-logo"  >
	<g transform="matrix(0.3812 0 0 -0.3812 -0.0009928413873581121 38.35558439999994)"  >
<path style="stroke: none; stroke-width: 1; stroke-dasharray: none; stroke-linecap: butt; stroke-dashoffset: 0; stroke-linejoin: miter; stroke-miterlimit: 10; fill: rgb(91,150,0); fill-rule: evenodd; opacity: 1;"  paint-order="stroke"  transform=" translate(-617.5920000000001, -1199.3840000000002)" d="M 343.02 1148.55 L 617.594 963.988 v 0 v 0 v 0 v 0 l 274.578 184.562 c 0.031 0.54 0 14.46 -0.016 37.23 c -5.363 -1.97 -10.801 -3.7 -15.574 -5.19 c -14.602 -4.58 -25.805 -3.77 -31.855 -0.72 c -3.004 1.53 -5.079 3.66 -6.122 6.17 c -1.207 2.92 -1.003 6.02 0.731 9.05 c 1.293 2.24 3.617 4.45 7.043 6.39 c -2.043 0.74 -3.914 1.67 -5.465 2.75 c -2.199 1.52 -3.937 3.43 -4.984 5.61 c -1.282 2.67 -1.492 5.54 -0.317 8.52 c 0.914 2.28 2.762 4.57 5.758 6.68 c -2.187 0.81 -4.066 1.9 -5.625 3.19 c -2.777 2.3 -4.59 5.16 -5.496 8.2 c -0.902 3.05 -0.902 6.28 -0.051 9.26 c 1.563 5.49 5.906 10.19 12.578 11.66 c -0.636 0.35 -1.246 0.73 -1.804 1.13 c -3.047 2.13 -5.145 4.96 -6.282 8.21 c -1.086 3.14 -1.257 6.63 -0.461 10.19 c 1.77 8 8.567 16.56 20.688 21.86 c 3.375 1.47 7.914 3.04 12.941 4.79 c 7.887 2.73 17.164 5.95 24.352 9.6 c 0.07 39.15 0.211 81.27 0.469 121.65 l -275.086 -210.43 l -275.09 210.43 c 0.262 -40.38 0.406 -82.5 0.48 -121.65 c 7.184 -3.65 16.465 -6.87 24.352 -9.6 c 5.019 -1.75 9.566 -3.32 12.934 -4.79 c 12.125 -5.3 18.918 -13.86 20.699 -21.86 c 0.785 -3.56 0.617 -7.05 -0.477 -10.19 c -1.133 -3.25 -3.23 -6.08 -6.269 -8.21 c -0.571 -0.4 -1.176 -0.78 -1.813 -1.13 c 6.684 -1.47 11.012 -6.17 12.578 -11.66 c 0.864 -2.98 0.864 -6.21 -0.05 -9.26 c -0.911 -3.04 -2.715 -5.9 -5.497 -8.2 c -1.558 -1.29 -3.429 -2.38 -5.628 -3.19 c 3.007 -2.11 4.843 -4.4 5.757 -6.68 c 1.188 -2.98 0.965 -5.85 -0.312 -8.52 c -1.039 -2.18 -2.789 -4.09 -4.981 -5.61 c -1.558 -1.08 -3.418 -2.01 -5.461 -2.75 c 3.426 -1.94 5.747 -4.15 7.028 -6.39 c 1.746 -3.03 1.949 -6.13 0.738 -9.05 c -1.035 -2.51 -3.121 -4.64 -6.121 -6.17 c -6.043 -3.05 -17.246 -3.86 -31.848 0.72 c -4.773 1.49 -10.218 3.22 -15.578 5.19 c -0.015 -22.77 -0.043 -36.69 -0.015 -37.23" stroke-linecap="round" />
</g>
	<g transform="matrix(0.3812 0 0 -0.3812 0.0013071586126329748 -48.85721560000002)"  >
<path style="stroke: none; stroke-width: 1; stroke-dasharray: none; stroke-linecap: butt; stroke-dashoffset: 0; stroke-linejoin: miter; stroke-miterlimit: 10; fill: rgb(0,106,176); fill-rule: evenodd; opacity: 1;"  paint-order="stroke"  transform=" translate(-617.5980000000001, -1428.1599999999999)" d="m 617.594 1604.43 v 0 c -91.574 -1.73 -122.121 -111.37 -104.375 -186.42 c 8.148 -34.48 20.554 -41.25 33.148 -66.7 c -38.601 25.31 -54.414 69.48 -59.711 113.46 c -17.027 -1.65 -90.523 -22.99 -104.933 -38.42 l 235.871 -174.46 v 0 v 0 v 0 v 0 l 235.879 174.46 c -14.41 15.43 -87.914 36.77 -104.942 38.42 c -5.301 -43.98 -21.097 -88.15 -59.703 -113.46 c 12.59 25.45 25 32.22 33.141 66.7 c 17.742 75.05 -12.805 184.69 -104.375 186.42 z M 535.52 1455.86 c 15.246 -8.81 47.617 -28.85 82.074 -28.4 v 0 c 34.457 -0.45 66.824 19.59 82.078 28.4 c -5.762 -55.12 -28.848 -67.5 -82.078 -77.25 c -53.231 9.75 -76.321 22.13 -82.074 77.25 v 0" stroke-linecap="round" />
</g>
	<g transform="matrix(0.3812 0 0 -0.3812 -101.7145928413874 16.978184399999975)"  >
<path style="stroke: none; stroke-width: 1; stroke-dasharray: none; stroke-linecap: butt; stroke-dashoffset: 0; stroke-linejoin: miter; stroke-miterlimit: 10; fill: rgb(0,106,176); fill-rule: evenodd; opacity: 1;"  paint-order="stroke"  transform=" translate(-350.7776240687547, -1255.4611107848873)" d="m 336.578 1242.03 c 10.594 -1.17 22.992 -6.63 33.988 -10.37 c 33.329 -11.35 36.02 17.9 19.711 20.37 c -12.605 1.9 -42.109 9.63 -50.804 18 c 9.359 -0.33 19.492 -4.34 28.465 -7.37 c 32.382 -10.98 37.687 18.88 10.085 30.92 c -15.695 6.85 -57.476 16 -51.972 34.4 c -13.387 -9.74 -43.375 -30.13 -7.488 -47.29 c -22.879 -7.92 -6.75 -23.75 6.695 -32.33 l 6.805 -4.63 c -33.024 -1.46 -5 -23.17 0.281 -23.21 c -30.367 -15.87 6.035 -27.71 27.933 -34.57 c 32.235 -10.1 43.524 7.94 15.485 14.42 c -13.887 3.2 -30.047 8.87 -37.25 15.87 c 13.105 -0.79 25.297 -7.35 35.086 -10.21 c 13.547 -3.96 35.382 9.58 7.98 18.63 c -14.82 4.89 -32.281 8.04 -45 17.37" stroke-linecap="round" />
</g>
	<g transform="matrix(0.3812 0 0 -0.3812 -74.71759284138739 -85.1240156)"  >
<path style="stroke: none; stroke-width: 1; stroke-dasharray: none; stroke-linecap: butt; stroke-dashoffset: 0; stroke-linejoin: miter; stroke-miterlimit: 10; fill: rgb(0,106,176); fill-rule: evenodd; opacity: 1;"  paint-order="stroke"  transform=" translate(-421.59585486475316, -1523.2950000000005)" d="m 357.602 1578.18 l 19.871 2.22 c -2.723 -2.93 -5.52 -5.82 -8.211 -8.75 l 8.093 -31.83 l 17.997 1.11 l -12.129 -14.07 l 4.066 -8.74 l 16.774 1.6 l -11.805 -13.37 l 5.078 -9.5 l 15.316 -0.77 l -11.375 -10.21 l 7.313 -20.1 c -13.832 -6.42 -28.141 -9.94 -34.918 -19.86 l 8.637 -3.01 l 103.875 35.46 l -7.313 16.89 l -34.215 -14.23 l -53.371 122.67 c -6.926 -1.8 -13.441 -3.27 -19.945 -6.35 c -11.246 -5.32 -14.367 -5.31 -14.332 -6.09 l 0.594 -13.07" stroke-linecap="round" />
</g>
	<g transform="matrix(0.3812 0 0 -0.3812 -95.9671928413874 -120.55221559999995)"  >
<path style="stroke: none; stroke-width: 1; stroke-dasharray: none; stroke-linecap: butt; stroke-dashoffset: 0; stroke-linejoin: miter; stroke-miterlimit: 10; fill: rgb(0,106,176); fill-rule: evenodd; opacity: 1;"  paint-order="stroke"  transform=" translate(-365.854, -1616.23)" d="m 343.313 1623.04 l 9.933 -26.58 l 35.149 14.15 l -9.082 25.39 l -36 -12.96" stroke-linecap="round" />
</g>
	<g transform="matrix(0.3812 0 0 -0.3812 -12.112192841387412 -44.32271560000004)"  >
<path style="stroke: none; stroke-width: 1; stroke-dasharray: none; stroke-linecap: butt; stroke-dashoffset: 0; stroke-linejoin: miter; stroke-miterlimit: 10; fill: rgb(0,106,176); fill-rule: evenodd; opacity: 1;"  paint-order="stroke"  transform=" translate(-585.822, -1416.2652980055905)" d="m 609.355 1410.24 l -47.066 20.55 c 5.516 -24.89 27.043 -39.17 47.066 -20.55" stroke-linecap="round" />
</g>
	<g transform="matrix(0.3812 0 0 -0.3812 74.7202071586126 -85.1240156)"  >
<path style="stroke: none; stroke-width: 1; stroke-dasharray: none; stroke-linecap: butt; stroke-dashoffset: 0; stroke-linejoin: miter; stroke-miterlimit: 10; fill: rgb(0,106,176); fill-rule: evenodd; opacity: 1;"  paint-order="stroke"  transform=" translate(-813.6001143258691, -1523.2950000000005)" d="m 877.582 1578.18 l -19.863 2.22 c 2.726 -2.93 5.511 -5.82 8.215 -8.75 l -8.102 -31.83 l -17.988 1.11 l 12.129 -14.07 l -4.078 -8.74 l -16.774 1.6 l 11.809 -13.37 l -5.071 -9.5 l -15.324 -0.77 l 11.383 -10.21 l -7.313 -20.1 c 13.833 -6.42 28.137 -9.94 34.918 -19.86 l -8.648 -3.01 l -103.859 35.46 l 7.308 16.89 l 34.211 -14.23 l 53.375 122.67 c 6.918 -1.8 13.445 -3.27 19.945 -6.35 c 11.247 -5.32 14.36 -5.31 14.329 -6.09 l -0.602 -13.07" stroke-linecap="round" />
</g>
	<g transform="matrix(0.3812 0 0 -0.3812 95.96750715861259 -120.55221559999995)"  >
<path style="stroke: none; stroke-width: 1; stroke-dasharray: none; stroke-linecap: butt; stroke-dashoffset: 0; stroke-linejoin: miter; stroke-miterlimit: 10; fill: rgb(0,106,176); fill-rule: evenodd; opacity: 1;"  paint-order="stroke"  transform=" translate(-869.336, -1616.23)" d="m 891.879 1623.04 l -9.941 -26.58 l -35.145 14.15 l 9.082 25.39 l 36.004 -12.96" stroke-linecap="round" />
</g>
	<g transform="matrix(0.3812 0 0 -0.3812 12.110007158612632 -44.32271560000004)"  >
<path style="stroke: none; stroke-width: 1; stroke-dasharray: none; stroke-linecap: butt; stroke-dashoffset: 0; stroke-linejoin: miter; stroke-miterlimit: 10; fill: rgb(0,106,176); fill-rule: evenodd; opacity: 1;"  paint-order="stroke"  transform=" translate(-649.3615, -1416.2652980055905)" d="m 625.828 1410.24 l 47.067 20.55 c -5.508 -24.89 -27.04 -39.17 -47.067 -20.55" stroke-linecap="round" />
</g>
	<g transform="matrix(0.3812 0 0 -0.3812 101.7145071586126 16.978184399999975)"  >
<path style="stroke: none; stroke-width: 1; stroke-dasharray: none; stroke-linecap: butt; stroke-dashoffset: 0; stroke-linejoin: miter; stroke-miterlimit: 10; fill: rgb(0,106,176); fill-rule: evenodd; opacity: 1;"  paint-order="stroke"  transform=" translate(-884.4114164390339, -1255.4611107848873)" d="m 898.617 1242.03 c -10.594 -1.17 -23.004 -6.63 -33.992 -10.37 c -33.34 -11.35 -36.016 17.9 -19.715 20.37 c 12.606 1.9 42.117 9.63 50.813 18 c -9.371 -0.33 -19.5 -4.34 -28.465 -7.37 c -32.387 -10.98 -37.688 18.88 -10.094 30.92 c 15.691 6.85 57.477 16 51.973 34.4 c 13.383 -9.74 43.375 -30.13 7.496 -47.29 c 22.879 -7.92 6.746 -23.75 -6.695 -32.33 l -6.813 -4.63 c 33.023 -1.46 5.004 -23.17 -0.289 -23.21 c 30.367 -15.87 -6.027 -27.71 -27.93 -34.57 c -32.218 -10.1 -43.523 7.94 -15.472 14.42 c 13.886 3.2 30.039 8.87 37.25 15.87 c -13.106 -0.79 -25.297 -7.35 -35.09 -10.21 c -13.543 -3.96 -35.379 9.58 -7.977 18.63 c 14.817 4.89 32.281 8.04 45 17.37" stroke-linecap="round" />
</g>
</g>
</svg>